{
  "extract_dir": "",
  "hash": "4079bac7a6de2e74eabc5646826ff89e1125b074",
  "log_url": "https://storage.googleapis.com/nativeclient-once/log/libcxx_x86_64_linux_b6c6d72983b975cabe920504586d7fdfdfdd3ac3.log",
  "name": "libcxx_x86_64_linux.tgz",
  "tar_src_dir": "",
  "url": "https://storage.googleapis.com/nativeclient-once/object/libcxx_x86_64_linux_b6c6d72983b975cabe920504586d7fdfdfdd3ac3.tgz"
}