{
  "extract_dir": "",
  "hash": "8e7427f9c27defaad9316d179d7393d326b74b1e",
  "log_url": "https://storage.googleapis.com/nativeclient-once/log/libcxx_mipsel_3bed760e3ad3d947c850577d78d3cda184c2b27b.log",
  "name": "libcxx_mipsel.tgz",
  "tar_src_dir": "",
  "url": "https://storage.googleapis.com/nativeclient-once/object/libcxx_mipsel_3bed760e3ad3d947c850577d78d3cda184c2b27b.tgz"
}