{
  "extract_dir": "",
  "hash": "41f894c01c16fdda6b2eb18b5a0a05f59c5d7d7f",
  "log_url": "https://storage.googleapis.com/nativeclient-once/log/libcxx_x86_64_bc_c16adc0aa6b3e29939c91f53ea461b2da4811c16.log",
  "name": "libcxx_x86_64_bc.tgz",
  "tar_src_dir": "",
  "url": "https://storage.googleapis.com/nativeclient-once/object/libcxx_x86_64_bc_c16adc0aa6b3e29939c91f53ea461b2da4811c16.tgz"
}