{
  "extract_dir": "",
  "hash": "872a264157e6b7e8a60bbd5e886b4ea1e345ba9b",
  "log_url": "https://storage.googleapis.com/nativeclient-once/log/libcxx_arm_b329d18c851eb3cceba2ac51de2f0f2dc213d71a.log",
  "name": "libcxx_arm.tgz",
  "tar_src_dir": "",
  "url": "https://storage.googleapis.com/nativeclient-once/object/libcxx_arm_b329d18c851eb3cceba2ac51de2f0f2dc213d71a.tgz"
}