{
  "extract_dir": "",
  "hash": "b842934f7cf2c27097ddd5dfa3e6dba98932165b",
  "log_url": "https://storage.googleapis.com/nativeclient-once/log/libs_support_arm_bc_326bdb4472a6109d9a7b8699b5239f606ed46264.log",
  "name": "libs_support_arm_bc.tgz",
  "tar_src_dir": "",
  "url": "https://storage.googleapis.com/nativeclient-once/object/libs_support_arm_bc_326bdb4472a6109d9a7b8699b5239f606ed46264.tgz"
}