{
  "extract_dir": "",
  "hash": "5ce724b5bcac360f96275b31847f2b8d4f40fb51",
  "log_url": "https://storage.googleapis.com/nativeclient-once/log/llvm_x86_64_linux_afdb229b322ba1fa7f60a592e6fc4b9a82b792b9.log",
  "name": "llvm_x86_64_linux.tgz",
  "tar_src_dir": "",
  "url": "https://storage.googleapis.com/nativeclient-once/object/llvm_x86_64_linux_afdb229b322ba1fa7f60a592e6fc4b9a82b792b9.tgz"
}