{
  "extract_dir": "",
  "hash": "44274a250589059e43bd4d8b9e27c026d8995ecb",
  "log_url": "https://storage.googleapis.com/nativeclient-once/log/newlib_x86_64_bf928a2c5eacb03826201b93e39e72be73625a14.log",
  "name": "newlib_x86_64.tgz",
  "tar_src_dir": "",
  "url": "https://storage.googleapis.com/nativeclient-once/object/newlib_x86_64_bf928a2c5eacb03826201b93e39e72be73625a14.tgz"
}